倾向性评分匹配的R语言实现 | 高山流水
…
mydata <- rbind(df.patients, df.population)
mydata$Group <- as.logical(mydata$Sample == 'Patients')
mydata$Distress <- ifelse(mydata$Sex == 'Male', 
                age(nrow(mydata), x = 0:42, name = 'Distress'),
                age(nrow(mydata), x = 15:42, name = 'Distress'))

> mydata
# A tibble: 1,250 x 5
     Age Sex    Sample   Group Distress
   <int> <fct>  <fct>    <lgl>    <int>
 1    76 Female Patients TRUE        39
 2    49 Female Patients TRUE        25
 3    57 Male   Patients TRUE        39
 4    62 Male   Patients TRUE        32
 5    61 Male   Patients TRUE        21
 6    44 Male   Patients TRUE        27
 7    56 Female Patients TRUE        21
 8    54 Female Patients TRUE        28
 9    49 Male   Patients TRUE        17
10    64 Male   Patients TRUE        28
# ... with 1,240 more rows
…
